{
	"addressLegal": {

	},
	"jurisdictional": {

	},
	"planningZoning": {

	},
	"assessor": {

	},
	"caseNumbers": {

	},
	"citywide": {

	},
	"additional": {

	},
	"seismicHazards": {

	},
	"economicDevAreas": {

	},
	"publicSafety": {

	}
}